<svg width="68" height="68" viewBox="0 0 68 68" fill="none" xmlns="http://www.w3.org/2000/svg">
<path fill-rule="evenodd" clip-rule="evenodd" d="M32.35 67.4833H35.9L44.5 58.8833H56.5L59 56.3833V44.2833L67.7 35.6833V32.1333L59.15 23.5333V11.3333L56.65 8.88325H44.5L35.9 0.333252H32.35L24 8.88325H11.65L9.00005 11.3833V23.5333L0.550049 32.1333V35.6833L9.00005 44.2833V56.3833L11.65 58.8833H24L32.35 67.4833ZM24.8 53.8833H14V43.2333L13.4 41.4833L5.85005 33.8833L13.25 26.3333L14 24.5833V13.8833H24.8L26.6 13.1833L34 5.63325L41.7 13.1833L43.45 13.8833H54V24.5833L54.85 26.3333L62.45 33.8833L54.7 41.4833L54 43.2333V53.8833H43.45L41.55 54.6333L34 62.1833L26.6 54.5833L24.8 53.8833ZM27.65 46.2832H31.2L50.05 27.4333L46.5 23.8833L29.45 40.9833L22.55 34.0833L19 37.6333L27.65 46.2832Z" fill="black"/>
</svg>
