<svg width="80" height="80" viewBox="0 0 80 80" fill="none" xmlns="http://www.w3.org/2000/svg">
<path d="M62.2221 66.6667H35.5555V48.8889H31.111V66.6667H17.7777V48.8889H13.3333V66.6667C13.3333 67.8454 13.8015 68.9759 14.635 69.8094C15.4685 70.6429 16.599 71.1111 17.7777 71.1111H62.2221C63.4009 71.1111 64.5313 70.6429 65.3648 69.8094C66.1983 68.9759 66.6666 67.8454 66.6666 66.6667V48.8889H62.2221V66.6667Z" fill="black"/>
<path d="M75.0888 29.4889L66.0221 11.3556C65.6542 10.6151 65.087 9.99196 64.3843 9.5562C63.6816 9.12045 62.8712 8.88935 62.0444 8.88892H17.9555C17.1286 8.88935 16.3183 9.12045 15.6156 9.5562C14.9129 9.99196 14.3457 10.6151 13.9777 11.3556L4.91104 29.4889C4.60147 30.11 4.44165 30.795 4.44437 31.4889V38.3334C4.44234 39.3718 4.80401 40.3782 5.46659 41.1778C6.44583 42.3003 7.65526 43.1989 9.01267 43.8124C10.3701 44.4259 11.8437 44.74 13.3333 44.7334C15.7639 44.7371 18.1203 43.8967 19.9999 42.3556C21.8795 43.8975 24.2355 44.7403 26.6666 44.7403C29.0977 44.7403 31.4537 43.8975 33.3333 42.3556C35.2128 43.8975 37.5688 44.7403 39.9999 44.7403C42.4311 44.7403 44.787 43.8975 46.6666 42.3556C48.5462 43.8975 50.9021 44.7403 53.3333 44.7403C55.7644 44.7403 58.1203 43.8975 59.9999 42.3556C62.098 44.0783 64.7824 44.9205 67.4886 44.7049C70.1948 44.4894 72.712 43.2331 74.511 41.2C75.1816 40.4035 75.5513 39.3968 75.5555 38.3556V31.4889C75.5582 30.795 75.3984 30.11 75.0888 29.4889ZM66.6666 40.2889C65.7174 40.2867 64.7825 40.0576 63.9399 39.6208C63.0972 39.184 62.3711 38.5521 61.8221 37.7778L59.9999 35.2889L58.1999 37.7778C57.6405 38.5402 56.9095 39.1602 56.0659 39.5876C55.2223 40.0149 54.29 40.2376 53.3444 40.2376C52.3987 40.2376 51.4664 40.0149 50.6228 39.5876C49.7793 39.1602 49.0482 38.5402 48.4888 37.7778L46.6666 35.2889L44.8666 37.7778C44.3072 38.5402 43.5761 39.1602 42.7326 39.5876C41.889 40.0149 40.9567 40.2376 40.011 40.2376C39.0654 40.2376 38.1331 40.0149 37.2895 39.5876C36.4459 39.1602 35.7149 38.5402 35.1555 37.7778L33.3333 35.2889L31.5333 37.7778C30.9739 38.5402 30.2428 39.1602 29.3992 39.5876C28.5557 40.0149 27.6233 40.2376 26.6777 40.2376C25.7321 40.2376 24.7997 40.0149 23.9562 39.5876C23.1126 39.1602 22.3815 38.5402 21.8221 37.7778L19.9999 35.2889L18.1777 37.7778C17.6287 38.5521 16.9027 39.184 16.06 39.6208C15.2173 40.0576 14.2824 40.2867 13.3333 40.2889C12.4958 40.2991 11.6658 40.1298 10.8992 39.7925C10.1326 39.4552 9.44711 38.9577 8.88881 38.3334V31.4889L17.9555 13.3334H62.0444L71.111 31.4667V38.2667C70.5561 38.8998 69.8728 39.4075 69.1065 39.7562C68.3402 40.1049 67.5085 40.2864 66.6666 40.2889Z" fill="black"/>
</svg>
