<svg width="24" height="25" viewBox="0 0 24 25" fill="none" xmlns="http://www.w3.org/2000/svg">
<rect x="3" y="6.5" width="18" height="12" rx="2" stroke="#949494" stroke-width="2"/>
<path d="M6 9.5H8" stroke="#949494" stroke-width="2" stroke-linecap="round"/>
<path d="M16 15.5H18" stroke="#949494" stroke-width="2" stroke-linecap="round"/>
<circle cx="12" cy="12.5" r="2" stroke="#949494" stroke-width="2"/>
</svg>
