<svg width="23" height="22" viewBox="0 0 23 22" fill="none" xmlns="http://www.w3.org/2000/svg">
<path d="M21.5 4H1.5C1.23478 4 0.98043 4.10536 0.792893 4.29289C0.605357 4.48043 0.5 4.73478 0.5 5V9C0.50174 9.61894 0.694878 10.2222 1.05294 10.7271C1.411 11.2319 1.91645 11.6137 2.5 11.82V21C2.5 21.2652 2.60536 21.5196 2.79289 21.7071C2.98043 21.8946 3.23478 22 3.5 22H19.5C19.7652 22 20.0196 21.8946 20.2071 21.7071C20.3946 21.5196 20.5 21.2652 20.5 21V11.82C21.0835 11.6137 21.589 11.2319 21.9471 10.7271C22.3051 10.2222 22.4983 9.61894 22.5 9V5C22.5 4.73478 22.3946 4.48043 22.2071 4.29289C22.0196 4.10536 21.7652 4 21.5 4ZM14.5 6H16.5V9C16.5 9.26522 16.3946 9.51957 16.2071 9.70711C16.0196 9.89464 15.7652 10 15.5 10C15.2348 10 14.9804 9.89464 14.7929 9.70711C14.6054 9.51957 14.5 9.26522 14.5 9V6ZM10.5 6H12.5V9C12.5 9.26522 12.3946 9.51957 12.2071 9.70711C12.0196 9.89464 11.7652 10 11.5 10C11.2348 10 10.9804 9.89464 10.7929 9.70711C10.6054 9.51957 10.5 9.26522 10.5 9V6ZM6.5 6H8.5V9C8.5 9.26522 8.39464 9.51957 8.20711 9.70711C8.01957 9.89464 7.76522 10 7.5 10C7.23478 10 6.98043 9.89464 6.79289 9.70711C6.60536 9.51957 6.5 9.26522 6.5 9V6ZM3.5 10C3.23478 10 2.98043 9.89464 2.79289 9.70711C2.60536 9.51957 2.5 9.26522 2.5 9V6H4.5V9C4.5 9.26522 4.39464 9.51957 4.20711 9.70711C4.01957 9.89464 3.76522 10 3.5 10ZM13.5 20H9.5V18C9.5 17.4696 9.71071 16.9609 10.0858 16.5858C10.4609 16.2107 10.9696 16 11.5 16C12.0304 16 12.5391 16.2107 12.9142 16.5858C13.2893 16.9609 13.5 17.4696 13.5 18V20ZM18.5 20H15.5V18C15.5 16.9391 15.0786 15.9217 14.3284 15.1716C13.5783 14.4214 12.5609 14 11.5 14C10.4391 14 9.42172 14.4214 8.67157 15.1716C7.92143 15.9217 7.5 16.9391 7.5 18V20H4.5V11.82C4.86757 11.6836 5.20664 11.4801 5.5 11.22C6.05002 11.712 6.76207 11.9839 7.5 11.9839C8.23793 11.9839 8.94998 11.712 9.5 11.22C10.05 11.712 10.7621 11.9839 11.5 11.9839C12.2379 11.9839 12.95 11.712 13.5 11.22C14.05 11.712 14.7621 11.9839 15.5 11.9839C16.2379 11.9839 16.95 11.712 17.5 11.22C17.7934 11.4801 18.1324 11.6836 18.5 11.82V20ZM20.5 9C20.5 9.26522 20.3946 9.51957 20.2071 9.70711C20.0196 9.89464 19.7652 10 19.5 10C19.2348 10 18.9804 9.89464 18.7929 9.70711C18.6054 9.51957 18.5 9.26522 18.5 9V6H20.5V9ZM3.8 2H19.5C19.7652 2 20.0196 1.89464 20.2071 1.70711C20.3946 1.51957 20.5 1.26522 20.5 1C20.5 0.734784 20.3946 0.48043 20.2071 0.292893C20.0196 0.105357 19.7652 0 19.5 0H3.8C3.53478 0 3.28043 0.105357 3.09289 0.292893C2.90536 0.48043 2.8 0.734784 2.8 1C2.8 1.26522 2.90536 1.51957 3.09289 1.70711C3.28043 1.89464 3.53478 2 3.8 2Z" fill="#49516F"/>
</svg>
